<svg width="103" height="108" viewBox="0 0 103 108" fill="none" xmlns="http://www.w3.org/2000/svg">
<path d="M92.8132 20.9083V40.2833H56.642C47.5212 40.2833 40.1265 48.7494 40.1265 59.1916V87.3171H16.5156C7.39474 87.3171 0 78.8583 0 68.4161V20.9083C0 10.4661 7.39474 2 16.5156 2H76.2976C85.4184 2 92.8132 10.4661 92.8132 20.9083Z" fill="#CCD7EE" fill-opacity="0.5"/>
<path d="M103 61.713V94.8237C103 102.102 98.4878 108 92.9305 108H56.4762C50.9124 108 46.4066 102.102 46.4066 94.8237V61.713C46.4066 54.4345 50.9188 48.5366 56.4762 48.5366H92.9305C98.4878 48.5294 103 54.4345 103 61.713Z" fill="#CCD7EE" fill-opacity="0.5"/>
<ellipse cx="20.5" cy="96.5" rx="20.5" ry="3.5" fill="black" fill-opacity="0.3"/>
<path d="M22.9311 28.0052H17.2637C15.7747 28.0052 14.5685 26.6671 14.5685 25.0152C14.5685 21.4744 17.154 18.5996 20.3514 18.5996H22.9369C24.4259 18.5996 25.6321 19.9378 25.6321 21.5897V25.0088C25.6263 26.6671 24.4201 28.0052 22.9311 28.0052Z" fill="#344A9D"/>
<path d="M28.6273 63.5407V64.5651C28.6273 65.9097 28.3618 67.1839 27.8828 68.3235V93.64H21.9961V73.3561C21.5401 73.4457 21.0669 73.497 20.5821 73.497H19.2547C18.7987 73.497 18.3486 73.4521 17.9157 73.3689V93.64H12.029V81.7885L12.7619 69.8282C12.4849 69.4056 12.2367 68.9574 12.029 68.49C11.8616 68.1187 11.7231 67.7281 11.6019 67.3311C11.9597 66.8125 12.1675 66.1594 12.1675 65.4551C12.1675 65.0453 12.0982 64.6612 11.9655 64.3026C11.8674 64.0209 11.7289 63.7648 11.5673 63.5343H28.6273V63.5407Z" fill="#344A9D"/>
<path d="M12.9467 81.8395H4.09343C2.38512 81.8395 1 80.3028 1 78.4076V72.8116C1 70.9164 2.38512 69.3798 4.09343 69.3798H12.9524C14.6607 69.3798 16.0459 70.9164 16.0459 72.8116V78.4076C16.0401 80.3028 14.655 81.8395 12.9467 81.8395Z" fill="white"/>
<path d="M21.9498 31.3794H18.2446V38.9666H21.9498V31.3794Z" fill="#F1E9F4"/>
<path d="M23.9986 25.2906V29.4715C23.9986 31.8598 22.2499 33.7998 20.0972 33.7998C17.9387 33.7998 16.1958 31.8598 16.1958 29.4715V23.0432C16.8653 22.6718 17.5694 22.6718 18.285 23.2161C20.9802 25.2842 22.9829 25.4186 23.9986 25.2906Z" fill="#F0F0F8"/>
<path d="M28.6159 43.6475C28.714 44.1982 28.7659 44.768 28.7659 45.3507V63.5409H11.7001C11.8675 63.7714 12.0002 64.0275 12.0983 64.3092L11.3365 64.1299L10.2342 63.8674L7.74097 63.2783L7.79868 62.9902L11.3884 44.3775L11.7347 42.5783C11.8386 42.2261 11.9598 41.8804 12.1041 41.5474C13.3911 38.5189 16.1671 36.4188 19.3875 36.4188H20.7149C22.4348 36.4188 24.0277 37.0207 25.3377 38.0387L31.9632 18.9073L36.5168 20.8474L28.6159 43.6475Z" fill="#5467B0"/>
<path d="M34.4738 22.2107C36.0197 22.2107 37.2729 20.8204 37.2729 19.1053C37.2729 17.3903 36.0197 16 34.4738 16C32.9279 16 31.6747 17.3903 31.6747 19.1053C31.6747 20.8204 32.9279 22.2107 34.4738 22.2107Z" fill="#F0F0F8"/>
<path d="M12.1272 74.4256V76.5833H9.54169V79.6118H7.59675V76.5833H4.91309V74.4256H7.59675V71.6084H9.54169V74.4256H12.1272Z" fill="#E9232C"/>
<path d="M18.7987 96.2007C18.7987 96.5209 18.7583 96.8282 18.689 97.1227H10.69C10.6207 96.8282 10.5803 96.5209 10.5803 96.2007C10.5803 93.9726 12.4156 92.167 14.6837 92.167C16.9519 92.167 18.7987 93.9726 18.7987 96.2007Z" fill="#5467B0"/>
<path d="M29.2332 96.2007C29.2332 96.5209 29.1928 96.8282 29.1236 97.1227H21.1303C21.061 96.8282 21.0206 96.5209 21.0206 96.2007C21.0206 93.9726 22.8559 92.167 25.124 92.167C27.3922 92.167 29.2332 93.9726 29.2332 96.2007Z" fill="#5467B0"/>
<path d="M12.179 71.2039H10.7593C10.3495 69.1615 9.56462 67.7785 8.6643 67.7785C7.76397 67.7785 6.97907 69.1615 6.5693 71.2039H4.81482C5.01104 67.8553 6.58085 65.2494 8.49693 65.2494C10.413 65.2494 11.9886 67.8617 12.179 71.2039Z" fill="#35479C"/>
<path d="M12.3003 65.4616C12.3003 66.1659 12.0925 66.8126 11.7347 67.3376C11.6308 67.4849 11.5212 67.6257 11.3942 67.7538C11.071 68.0803 10.6728 68.33 10.2341 68.4581C10.0899 68.5029 9.93981 68.5349 9.78398 68.5541C9.69164 68.5669 9.59353 68.5733 9.49542 68.5733C8.92983 68.5733 8.40464 68.3876 7.96601 68.0739C7.33694 67.6193 6.88678 66.8958 6.74249 66.0506C6.70787 65.8586 6.69055 65.6665 6.69055 65.468C6.69055 64.4628 7.1234 63.5664 7.79288 62.9965C8.26612 62.5932 8.8548 62.3627 9.48965 62.3627C10.1937 62.3627 10.8344 62.6508 11.3307 63.1246C11.4634 63.2526 11.5846 63.3935 11.6943 63.5472C11.8617 63.7777 11.9944 64.0338 12.0925 64.3155C12.2253 64.6677 12.3003 65.0518 12.3003 65.4616Z" fill="#F0F0F8"/>
<ellipse cx="75.5" cy="70.7239" rx="20.5" ry="3.5" fill="black" fill-opacity="0.3"/>
<path d="M84.3356 40.9532V41.8766C84.3356 43.0886 84.0701 44.237 83.5911 45.2643V68.0842H77.7044V49.8006C77.2484 49.8814 76.7752 49.9276 76.2904 49.9276H74.963C74.507 49.9276 74.0569 49.8872 73.624 49.8121V68.0842H67.7373V57.4014L68.4702 46.6206C68.1932 46.2397 67.945 45.8357 67.7373 45.4144C67.5699 45.0797 67.4314 44.7276 67.3102 44.3698C67.668 43.9023 67.8758 43.3136 67.8758 42.6788C67.8758 42.3094 67.8065 41.9631 67.6738 41.6399C67.5757 41.386 67.4372 41.1552 67.2756 40.9474H84.3356V40.9532Z" fill="#344A9D"/>
<path d="M69.8207 15.0228V7.64124C69.8207 4.73826 71.0904 2.21042 72.9661 0.917641C73.8144 0.334737 74.7783 0 75.8055 0C76.8328 0 77.8024 0.328966 78.645 0.917641C80.515 2.21042 81.7904 4.73826 81.7904 7.64124V18.9992H81.7846V19.8649H69.8265L69.8207 15.0228Z" fill="#3B4B9F"/>
<path d="M77.6524 11.981H73.9472V18.82H77.6524V11.981Z" fill="#F1E9F4"/>
<path d="M84.9936 24.1184V55.6645H66.381V43.9718L63.1029 43.4005L66.381 24.1184C66.381 20.0901 69.6476 16.8235 73.676 16.8235H77.6928C81.727 16.8235 84.9936 20.0901 84.9936 24.1184Z" fill="#5467B0"/>
<path d="M80.3881 41.6054H71.5291C69.8208 41.6054 68.4357 40.2203 68.4357 38.512V33.4621C68.4357 31.7538 69.8208 30.3687 71.5291 30.3687H80.3881C82.0964 30.3687 83.4815 31.7538 83.4815 33.4621V38.5062C83.4815 40.2203 82.0964 41.6054 80.3881 41.6054Z" fill="white"/>
<path d="M79.5686 34.9165V36.8672H76.983V39.597H75.0323V36.8672H72.3544V34.9165H75.0323V32.3771H76.983V34.9165H79.5686Z" fill="#E9232C"/>
<path d="M79.6204 32.0192H78.2007C77.7909 30.1781 77.006 28.9315 76.1057 28.9315C75.2054 28.9315 74.4205 30.1781 74.0107 32.0192H72.2562C72.4525 29.0008 74.0223 26.6519 75.9383 26.6519C77.8544 26.6519 79.4242 29.0008 79.6204 32.0192Z" fill="#35479C"/>
<path d="M81.3519 26.652C81.3519 27.2868 81.1441 27.8697 80.7863 28.343C80.6824 28.4757 80.5727 28.6027 80.4458 28.7181C80.1226 29.0124 79.7243 29.2375 79.2857 29.3529C79.1414 29.3933 78.9914 29.4222 78.8356 29.4395C78.7432 29.4511 78.6451 29.4568 78.547 29.4568C77.9814 29.4568 77.4562 29.2895 77.0176 29.0067C76.3885 28.5969 75.9383 27.9447 75.7941 27.1829C75.7594 27.0098 75.7421 26.8366 75.7421 26.6577C75.7421 25.7516 76.175 24.9437 76.8444 24.43C77.3177 24.0664 77.9064 23.8586 78.5412 23.8586C79.2453 23.8586 79.8859 24.1184 80.3823 24.5454C80.515 24.6609 80.6362 24.7878 80.7459 24.9263C80.9132 25.1341 81.046 25.365 81.1441 25.6189C81.2826 25.9305 81.3519 26.2826 81.3519 26.652Z" fill="#F0F0F8"/>
<path d="M67.4545 45.6457C67.4545 46.2806 67.2467 46.8635 66.8889 47.3367C66.785 47.4695 66.6753 47.5964 66.5484 47.7119C66.2252 48.0062 65.8269 48.2313 65.3883 48.3467C65.244 48.3871 65.094 48.416 64.9382 48.4333C64.8458 48.4448 64.7477 48.4506 64.6496 48.4506C64.084 48.4506 63.5588 48.2832 63.1202 48.0004C62.4911 47.5907 62.041 46.9385 61.8967 46.1767C61.862 46.0036 61.8447 45.8304 61.8447 45.6515C61.8447 44.7454 62.2776 43.9374 62.9471 43.4238C63.4203 43.0602 64.009 42.8524 64.6438 42.8524C65.3479 42.8524 65.9885 43.1121 66.4849 43.5392C66.6176 43.6546 66.7388 43.7816 66.8485 43.9201C67.0158 44.1279 67.1486 44.3587 67.2467 44.6127C67.3852 44.9243 67.4545 45.2764 67.4545 45.6457Z" fill="#F0F0F8"/>
<path d="M74.7149 70.3926C74.7149 70.6812 74.6745 70.9582 74.6052 71.2237H66.6062C66.5369 70.9582 66.4965 70.6812 66.4965 70.3926C66.4965 68.3842 68.3318 66.7567 70.5999 66.7567C72.8738 66.7567 74.7149 68.3842 74.7149 70.3926Z" fill="#5467B0"/>
<path d="M84.5722 70.3926C84.5722 70.6812 84.5318 70.9582 84.4625 71.2237H76.4635C76.3942 70.9582 76.3538 70.6812 76.3538 70.3926C76.3538 68.3842 78.1891 66.7567 80.4572 66.7567C82.7254 66.7567 84.5722 68.3842 84.5722 70.3926Z" fill="#5467B0"/>
<path d="M75.7999 13.9548C73.6761 13.9548 71.9504 12.2291 71.9504 10.1053V6.02495C71.9504 5.22851 72.5968 4.58789 73.3875 4.58789H78.2123C79.0088 4.58789 79.6494 5.23428 79.6494 6.02495V10.1053C79.6494 12.2349 77.9295 13.9548 75.7999 13.9548Z" fill="#F0F0F8"/>
</svg>
