[
    {
    "Judul": "Luka Terbuka",
    "isi": "Jika kamu mengalami luka terbuka dan berdarah,tutuplah luka dengan kain sambil menekannya sedikit agar aliran darah melambat dan kemudian berhenti",
    "desc": "Apa si yang harus dilakukan untuk mengobati luka terbuka?",
    "id": 1
    }
]