<svg width="179" height="68" viewBox="0 0 179 68" fill="none" xmlns="http://www.w3.org/2000/svg">
<path d="M31.5918 62.12C31.0078 62.12 30.4918 62.04 30.0438 61.88C29.5958 61.712 29.1678 61.444 28.7598 61.076C28.5918 60.932 28.5078 60.768 28.5078 60.584C28.5078 60.44 28.5638 60.312 28.6758 60.2C28.7878 60.08 28.9198 60.02 29.0718 60.02C29.2078 60.02 29.3238 60.064 29.4198 60.152C29.7398 60.448 30.0678 60.668 30.4038 60.812C30.7478 60.948 31.1358 61.016 31.5678 61.016C32.0718 61.016 32.4958 60.9 32.8398 60.668C33.1918 60.436 33.3678 60.144 33.3678 59.792C33.3598 59.376 33.1838 59.056 32.8398 58.832C32.5038 58.6 31.9878 58.408 31.2918 58.256C30.4678 58.088 29.8318 57.812 29.3838 57.428C28.9438 57.044 28.7238 56.512 28.7238 55.832C28.7238 55.36 28.8478 54.948 29.0958 54.596C29.3438 54.236 29.6878 53.96 30.1278 53.768C30.5678 53.576 31.0638 53.48 31.6158 53.48C32.1118 53.48 32.5798 53.56 33.0198 53.72C33.4598 53.88 33.8158 54.092 34.0878 54.356C34.2718 54.516 34.3638 54.688 34.3638 54.872C34.3638 55.016 34.3078 55.144 34.1958 55.256C34.0918 55.368 33.9638 55.424 33.8118 55.424C33.6998 55.424 33.6078 55.392 33.5358 55.328C33.3278 55.12 33.0398 54.944 32.6718 54.8C32.3038 54.656 31.9518 54.584 31.6158 54.584C31.0798 54.584 30.6518 54.696 30.3318 54.92C30.0198 55.136 29.8638 55.424 29.8638 55.784C29.8638 56.176 30.0198 56.476 30.3318 56.684C30.6518 56.892 31.1238 57.068 31.7478 57.212C32.3718 57.348 32.8798 57.508 33.2718 57.692C33.6718 57.876 33.9798 58.132 34.1958 58.46C34.4118 58.788 34.5198 59.216 34.5198 59.744C34.5198 60.208 34.3878 60.62 34.1238 60.98C33.8678 61.34 33.5158 61.62 33.0678 61.82C32.6198 62.02 32.1278 62.12 31.5918 62.12ZM40.9882 55.628C41.1562 55.628 41.2922 55.684 41.3962 55.796C41.5082 55.9 41.5642 56.04 41.5642 56.216V61.424C41.5642 61.584 41.5082 61.72 41.3962 61.832C41.2922 61.944 41.1562 62 40.9882 62C40.8202 62 40.6842 61.948 40.5802 61.844C40.4762 61.732 40.4242 61.592 40.4242 61.424V61.112C40.2162 61.392 39.9322 61.632 39.5722 61.832C39.2122 62.024 38.8242 62.12 38.4082 62.12C37.8642 62.12 37.3682 61.98 36.9202 61.7C36.4802 61.42 36.1322 61.032 35.8762 60.536C35.6282 60.032 35.5042 59.468 35.5042 58.844C35.5042 58.22 35.6282 57.66 35.8762 57.164C36.1322 56.66 36.4802 56.268 36.9202 55.988C37.3602 55.708 37.8442 55.568 38.3722 55.568C38.7962 55.568 39.1882 55.656 39.5482 55.832C39.9162 56.008 40.2082 56.232 40.4242 56.504V56.216C40.4242 56.048 40.4762 55.908 40.5802 55.796C40.6842 55.684 40.8202 55.628 40.9882 55.628ZM38.5402 61.064C38.9162 61.064 39.2482 60.968 39.5362 60.776C39.8322 60.584 40.0602 60.32 40.2202 59.984C40.3882 59.648 40.4722 59.268 40.4722 58.844C40.4722 58.428 40.3882 58.052 40.2202 57.716C40.0602 57.38 39.8322 57.116 39.5362 56.924C39.2482 56.724 38.9162 56.624 38.5402 56.624C38.1642 56.624 37.8282 56.72 37.5322 56.912C37.2442 57.104 37.0162 57.368 36.8482 57.704C36.6882 58.04 36.6082 58.42 36.6082 58.844C36.6082 59.268 36.6882 59.648 36.8482 59.984C37.0162 60.32 37.2442 60.584 37.5322 60.776C37.8282 60.968 38.1642 61.064 38.5402 61.064ZM45.9473 54.152C45.6833 54.152 45.4873 54.232 45.3593 54.392C45.2393 54.552 45.1793 54.748 45.1793 54.98V55.82H46.3673C46.5273 55.82 46.6553 55.872 46.7513 55.976C46.8553 56.072 46.9073 56.196 46.9073 56.348C46.9073 56.5 46.8553 56.624 46.7513 56.72C46.6553 56.816 46.5273 56.864 46.3673 56.864H45.1793V61.424C45.1793 61.584 45.1233 61.72 45.0113 61.832C44.9073 61.944 44.7713 62 44.6033 62C44.4433 62 44.3073 61.944 44.1953 61.832C44.0913 61.72 44.0393 61.584 44.0393 61.424V56.864H43.2953C43.1433 56.864 43.0153 56.816 42.9113 56.72C42.8073 56.624 42.7553 56.5 42.7553 56.348C42.7553 56.196 42.8073 56.072 42.9113 55.976C43.0153 55.872 43.1433 55.82 43.2953 55.82H44.0393V54.98C44.0393 54.42 44.2193 53.976 44.5793 53.648C44.9393 53.312 45.4473 53.144 46.1033 53.144C46.3753 53.144 46.6153 53.196 46.8233 53.3C47.0313 53.396 47.1353 53.544 47.1353 53.744C47.1353 53.896 47.0873 54.024 46.9913 54.128C46.9033 54.224 46.7953 54.272 46.6673 54.272C46.6353 54.272 46.5473 54.256 46.4033 54.224C46.2273 54.176 46.0753 54.152 45.9473 54.152ZM53.4551 58.616C53.4471 58.76 53.3871 58.884 53.2751 58.988C53.1631 59.084 53.0311 59.132 52.8791 59.132H48.6551C48.7111 59.716 48.9311 60.184 49.3151 60.536C49.7071 60.888 50.1831 61.064 50.7431 61.064C51.1271 61.064 51.4391 61.008 51.6791 60.896C51.9191 60.784 52.1311 60.64 52.3151 60.464C52.4351 60.392 52.5511 60.356 52.6631 60.356C52.7991 60.356 52.9111 60.404 52.9991 60.5C53.0951 60.596 53.1431 60.708 53.1431 60.836C53.1431 61.004 53.0631 61.156 52.9031 61.292C52.6711 61.524 52.3631 61.72 51.9791 61.88C51.5951 62.04 51.2031 62.12 50.8031 62.12C50.1551 62.12 49.5831 61.984 49.0871 61.712C48.5991 61.44 48.2191 61.06 47.9471 60.572C47.6831 60.084 47.5511 59.532 47.5511 58.916C47.5511 58.244 47.6871 57.656 47.9591 57.152C48.2391 56.64 48.6031 56.248 49.0511 55.976C49.5071 55.704 49.9951 55.568 50.5151 55.568C51.0271 55.568 51.5071 55.7 51.9551 55.964C52.4031 56.228 52.7631 56.592 53.0351 57.056C53.3071 57.52 53.4471 58.04 53.4551 58.616ZM50.5151 56.624C50.0671 56.624 49.6791 56.752 49.3511 57.008C49.0231 57.256 48.8071 57.644 48.7031 58.172H52.2431V58.076C52.2031 57.652 52.0111 57.304 51.6671 57.032C51.3311 56.76 50.9471 56.624 50.5151 56.624ZM67.815 53.564C67.967 53.564 68.107 53.62 68.235 53.732C68.363 53.844 68.427 53.992 68.427 54.176C68.427 54.24 68.415 54.308 68.391 54.38L65.907 61.64C65.875 61.752 65.807 61.84 65.703 61.904C65.607 61.96 65.503 61.992 65.391 62C65.279 62 65.171 61.968 65.067 61.904C64.963 61.84 64.887 61.748 64.839 61.628L62.967 57.248L61.107 61.628C61.059 61.748 60.983 61.84 60.879 61.904C60.775 61.968 60.663 62 60.543 62C60.431 61.992 60.327 61.956 60.231 61.892C60.135 61.828 60.071 61.744 60.039 61.64L57.555 54.38C57.531 54.308 57.519 54.24 57.519 54.176C57.519 54 57.583 53.856 57.711 53.744C57.847 53.624 57.991 53.564 58.143 53.564C58.271 53.564 58.387 53.6 58.491 53.672C58.595 53.736 58.663 53.824 58.695 53.936L60.723 59.948L62.463 55.676C62.511 55.564 62.583 55.476 62.679 55.412C62.775 55.348 62.883 55.316 63.003 55.316C63.123 55.316 63.231 55.348 63.327 55.412C63.423 55.476 63.495 55.564 63.543 55.676L65.235 59.948L67.251 53.936C67.283 53.816 67.351 53.724 67.455 53.66C67.559 53.596 67.679 53.564 67.815 53.564ZM70.6245 61.424C70.6245 61.584 70.5685 61.72 70.4565 61.832C70.3525 61.944 70.2165 62 70.0485 62C69.8885 62 69.7525 61.944 69.6405 61.832C69.5365 61.72 69.4845 61.584 69.4845 61.424V56.228C69.4845 56.068 69.5365 55.932 69.6405 55.82C69.7525 55.708 69.8885 55.652 70.0485 55.652C70.2165 55.652 70.3525 55.708 70.4565 55.82C70.5685 55.932 70.6245 56.068 70.6245 56.228V61.424ZM70.0485 54.86C69.8165 54.86 69.6485 54.82 69.5445 54.74C69.4485 54.652 69.4005 54.516 69.4005 54.332V54.14C69.4005 53.948 69.4525 53.812 69.5565 53.732C69.6685 53.652 69.8365 53.612 70.0605 53.612C70.2845 53.612 70.4445 53.656 70.5405 53.744C70.6445 53.824 70.6965 53.956 70.6965 54.14V54.332C70.6965 54.524 70.6445 54.66 70.5405 54.74C70.4365 54.82 70.2725 54.86 70.0485 54.86ZM73.9672 56.828V60.404C73.9672 60.804 74.1472 61.004 74.5072 61.004C74.5632 61.004 74.6392 60.992 74.7352 60.968C74.8312 60.936 74.9072 60.92 74.9632 60.92C75.0672 60.92 75.1552 60.964 75.2272 61.052C75.2992 61.14 75.3352 61.252 75.3352 61.388C75.3352 61.556 75.2392 61.7 75.0472 61.82C74.8552 61.94 74.6392 62 74.3992 62C74.1352 62 73.8912 61.972 73.6672 61.916C73.4512 61.86 73.2552 61.72 73.0792 61.496C72.9112 61.264 72.8272 60.916 72.8272 60.452V56.828H72.1312C71.9792 56.828 71.8512 56.78 71.7472 56.684C71.6512 56.58 71.6032 56.452 71.6032 56.3C71.6032 56.148 71.6512 56.024 71.7472 55.928C71.8512 55.832 71.9792 55.784 72.1312 55.784H72.8272V54.776C72.8272 54.616 72.8792 54.48 72.9832 54.368C73.0952 54.256 73.2352 54.2 73.4032 54.2C73.5632 54.2 73.6952 54.256 73.7992 54.368C73.9112 54.48 73.9672 54.616 73.9672 54.776V55.784H74.9632C75.1152 55.784 75.2392 55.836 75.3352 55.94C75.4392 56.036 75.4912 56.16 75.4912 56.312C75.4912 56.464 75.4392 56.588 75.3352 56.684C75.2392 56.78 75.1152 56.828 74.9632 56.828H73.9672ZM79.9538 55.604C81.3618 55.604 82.0658 56.476 82.0658 58.22V61.424C82.0658 61.584 82.0098 61.72 81.8978 61.832C81.7938 61.944 81.6578 62 81.4898 62C81.3298 62 81.1938 61.944 81.0818 61.832C80.9778 61.72 80.9258 61.584 80.9258 61.424V58.22C80.9258 57.18 80.4858 56.66 79.6058 56.66C79.1338 56.66 78.7418 56.812 78.4298 57.116C78.1178 57.412 77.9618 57.78 77.9618 58.22V61.424C77.9618 61.584 77.9058 61.72 77.7938 61.832C77.6898 61.944 77.5538 62 77.3858 62C77.2178 62 77.0818 61.948 76.9778 61.844C76.8738 61.732 76.8218 61.592 76.8218 61.424V53.696C76.8218 53.536 76.8738 53.4 76.9778 53.288C77.0898 53.176 77.2258 53.12 77.3858 53.12C77.5538 53.12 77.6898 53.176 77.7938 53.288C77.9058 53.4 77.9618 53.536 77.9618 53.696V56.732C78.1618 56.42 78.4418 56.156 78.8018 55.94C79.1618 55.716 79.5458 55.604 79.9538 55.604ZM93.1952 53.588C93.3632 53.588 93.4952 53.644 93.5912 53.756C93.6952 53.86 93.7472 53.996 93.7472 54.164V58.772C93.7472 59.404 93.6072 59.972 93.3272 60.476C93.0472 60.98 92.6592 61.376 92.1632 61.664C91.6752 61.944 91.1232 62.084 90.5072 62.084C89.8832 62.084 89.3232 61.944 88.8272 61.664C88.3312 61.376 87.9432 60.98 87.6632 60.476C87.3832 59.972 87.2432 59.404 87.2432 58.772V54.164C87.2432 53.996 87.2992 53.86 87.4112 53.756C87.5232 53.644 87.6672 53.588 87.8432 53.588C87.9952 53.588 88.1272 53.644 88.2392 53.756C88.3592 53.868 88.4192 54.004 88.4192 54.164V58.772C88.4192 59.188 88.5152 59.564 88.7072 59.9C88.8992 60.228 89.1552 60.484 89.4752 60.668C89.7952 60.852 90.1392 60.944 90.5072 60.944C90.8912 60.944 91.2472 60.852 91.5752 60.668C91.9032 60.484 92.1632 60.228 92.3552 59.9C92.5552 59.564 92.6552 59.188 92.6552 58.772V54.164C92.6552 53.996 92.7032 53.86 92.7992 53.756C92.8952 53.644 93.0272 53.588 93.1952 53.588ZM95.2353 61.016C95.1633 60.904 95.1273 60.796 95.1273 60.692C95.1273 60.532 95.2113 60.396 95.3793 60.284C95.4593 60.228 95.5513 60.2 95.6553 60.2C95.7993 60.2 95.9313 60.26 96.0513 60.38C96.2913 60.652 96.5473 60.856 96.8193 60.992C97.0993 61.128 97.4313 61.196 97.8153 61.196C98.1193 61.188 98.3873 61.12 98.6193 60.992C98.8513 60.856 98.9673 60.64 98.9673 60.344C98.9673 60.072 98.8473 59.864 98.6073 59.72C98.3753 59.576 98.0313 59.444 97.5753 59.324C97.1273 59.204 96.7553 59.08 96.4593 58.952C96.1633 58.816 95.9113 58.624 95.7033 58.376C95.5033 58.12 95.4033 57.788 95.4033 57.38C95.4033 57.02 95.5033 56.704 95.7033 56.432C95.9113 56.16 96.1833 55.948 96.5193 55.796C96.8633 55.644 97.2353 55.568 97.6353 55.568C98.0193 55.568 98.3993 55.64 98.7753 55.784C99.1593 55.928 99.4713 56.148 99.7113 56.444C99.8073 56.556 99.8553 56.672 99.8553 56.792C99.8553 56.92 99.7913 57.044 99.6633 57.164C99.5833 57.236 99.4833 57.272 99.3633 57.272C99.2193 57.272 99.1033 57.224 99.0153 57.128C98.8473 56.936 98.6393 56.788 98.3913 56.684C98.1513 56.58 97.8833 56.528 97.5873 56.528C97.2833 56.528 97.0233 56.592 96.8073 56.72C96.5993 56.84 96.4953 57.048 96.4953 57.344C96.5033 57.624 96.6233 57.832 96.8553 57.968C97.0953 58.104 97.4593 58.236 97.9473 58.364C98.3713 58.476 98.7233 58.596 99.0033 58.724C99.2833 58.852 99.5193 59.044 99.7113 59.3C99.9033 59.548 99.9993 59.876 99.9993 60.284C99.9993 60.66 99.8913 60.988 99.6753 61.268C99.4593 61.54 99.1753 61.752 98.8233 61.904C98.4793 62.048 98.1113 62.12 97.7193 62.12C97.2153 62.12 96.7473 62.032 96.3153 61.856C95.8913 61.68 95.5313 61.4 95.2353 61.016Z" fill="#60B6AD"/>
<path d="M13.8848 47.5C11.4848 47.5 9.35146 47.2 7.4848 46.6C5.61813 46 3.86813 44.9833 2.2348 43.55C1.3348 42.75 0.884796 41.8667 0.884796 40.9C0.884796 40.1333 1.16813 39.4667 1.7348 38.9C2.30146 38.3 2.9848 38 3.7848 38C4.41813 38 4.9848 38.2 5.4848 38.6C6.81813 39.7 8.11813 40.5 9.3848 41C10.6515 41.5 12.1515 41.75 13.8848 41.75C15.7515 41.75 17.3515 41.3333 18.6848 40.5C20.0515 39.6667 20.7348 38.6333 20.7348 37.4C20.7348 35.9 20.0681 34.7333 18.7348 33.9C17.4015 33.0333 15.2848 32.3833 12.3848 31.95C5.0848 30.8833 1.4348 27.4833 1.4348 21.75C1.4348 19.65 1.9848 17.8333 3.0848 16.3C4.1848 14.7333 5.6848 13.55 7.5848 12.75C9.4848 11.9167 11.6015 11.5 13.9348 11.5C16.0348 11.5 18.0015 11.8167 19.8348 12.45C21.7015 13.0833 23.2515 13.9167 24.4848 14.95C25.4515 15.7167 25.9348 16.6 25.9348 17.6C25.9348 18.3667 25.6515 19.05 25.0848 19.65C24.5181 20.2167 23.8515 20.5 23.0848 20.5C22.5848 20.5 22.1348 20.35 21.7348 20.05C20.8681 19.35 19.6515 18.7167 18.0848 18.15C16.5515 17.55 15.1681 17.25 13.9348 17.25C11.8348 17.25 10.2015 17.65 9.0348 18.45C7.90146 19.2167 7.3348 20.2333 7.3348 21.5C7.3348 22.9333 7.91813 24.0167 9.0848 24.75C10.2848 25.4833 12.1515 26.0833 14.6848 26.55C17.5515 27.05 19.8348 27.7 21.5348 28.5C23.2681 29.2667 24.5681 30.3333 25.4348 31.7C26.3015 33.0333 26.7348 34.8167 26.7348 37.05C26.7348 39.15 26.1348 41 24.9348 42.6C23.7681 44.1667 22.2015 45.3833 20.2348 46.25C18.2681 47.0833 16.1515 47.5 13.8848 47.5ZM37.6188 43.95C37.6188 44.8167 37.3354 45.55 36.7688 46.15C36.2021 46.7167 35.4854 47 34.6188 47C33.7521 47 33.0354 46.7167 32.4688 46.15C31.9021 45.55 31.6188 44.8167 31.6188 43.95V23.3C31.6188 22.4333 31.9021 21.7167 32.4688 21.15C33.0354 20.55 33.7521 20.25 34.6188 20.25C35.4854 20.25 36.2021 20.55 36.7688 21.15C37.3354 21.7167 37.6188 22.4333 37.6188 23.3V43.95ZM34.5688 17C33.4354 17 32.6354 16.8167 32.1688 16.45C31.7021 16.0833 31.4688 15.4333 31.4688 14.5V13.55C31.4688 12.6167 31.7188 11.9667 32.2188 11.6C32.7188 11.2333 33.5188 11.05 34.6188 11.05C35.7854 11.05 36.6021 11.2333 37.0688 11.6C37.5354 11.9667 37.7688 12.6167 37.7688 13.55V14.5C37.7688 15.4667 37.5188 16.1333 37.0188 16.5C36.5521 16.8333 35.7354 17 34.5688 17ZM58.0852 19.75C61.4852 19.75 63.8352 20.7667 65.1352 22.8C66.4352 24.8 67.0852 27.5833 67.0852 31.15V43.95C67.0852 44.8167 66.8019 45.55 66.2352 46.15C65.6685 46.7167 64.9519 47 64.0852 47C63.2185 47 62.5019 46.7167 61.9352 46.15C61.3685 45.55 61.0852 44.8167 61.0852 43.95V31.15C61.0852 29.3167 60.7019 27.8833 59.9352 26.85C59.1685 25.7833 57.8519 25.25 55.9852 25.25C54.0519 25.25 52.5352 25.8167 51.4352 26.95C50.3352 28.05 49.7852 29.45 49.7852 31.15V43.95C49.7852 44.8167 49.5019 45.55 48.9352 46.15C48.3685 46.7167 47.6519 47 46.7852 47C45.9185 47 45.2019 46.7167 44.6352 46.15C44.0685 45.55 43.7852 44.8167 43.7852 43.95V23.3C43.7852 22.4333 44.0685 21.7167 44.6352 21.15C45.2019 20.55 45.9185 20.25 46.7852 20.25C47.6519 20.25 48.3685 20.55 48.9352 21.15C49.5019 21.7167 49.7852 22.4333 49.7852 23.3V24.15C50.6852 22.95 51.8519 21.9167 53.2852 21.05C54.7519 20.1833 56.3519 19.75 58.0852 19.75ZM85.2203 19.75C88.0537 19.75 90.337 20.2 92.0703 21.1C93.8037 21.9667 94.6703 23.1333 94.6703 24.6C94.6703 25.3333 94.4537 25.9833 94.0203 26.55C93.587 27.0833 93.0203 27.35 92.3203 27.35C91.787 27.35 91.3537 27.2833 91.0203 27.15C90.687 26.9833 90.3537 26.7833 90.0203 26.55C89.7203 26.2833 89.4203 26.0667 89.1203 25.9C88.787 25.7333 88.287 25.5833 87.6203 25.45C86.987 25.3167 86.4703 25.25 86.0703 25.25C83.5703 25.25 81.6037 26.0333 80.1703 27.6C78.7703 29.1333 78.0703 31.15 78.0703 33.65C78.0703 36.05 78.787 38.05 80.2203 39.65C81.6537 41.2167 83.487 42 85.7203 42C87.3537 42 88.5703 41.8 89.3703 41.4C89.5703 41.3 89.837 41.1333 90.1703 40.9C90.537 40.6333 90.8703 40.4333 91.1703 40.3C91.4703 40.1667 91.837 40.1 92.2703 40.1C93.1037 40.1 93.7537 40.3667 94.2203 40.9C94.7203 41.4333 94.9703 42.1167 94.9703 42.95C94.9703 43.75 94.5037 44.5 93.5703 45.2C92.637 45.9 91.4037 46.4667 89.8703 46.9C88.337 47.3 86.7037 47.5 84.9703 47.5C82.4037 47.5 80.137 46.9 78.1703 45.7C76.237 44.5 74.737 42.85 73.6703 40.75C72.6037 38.6167 72.0703 36.25 72.0703 33.65C72.0703 30.95 72.6203 28.55 73.7203 26.45C74.8537 24.35 76.4203 22.7167 78.4203 21.55C80.4203 20.35 82.687 19.75 85.2203 19.75ZM169.657 19.75C173.057 19.75 175.407 20.7667 176.707 22.8C178.007 24.8 178.657 27.5833 178.657 31.15V43.95C178.657 44.8167 178.374 45.55 177.807 46.15C177.241 46.7167 176.524 47 175.657 47C174.791 47 174.074 46.7167 173.507 46.15C172.941 45.55 172.657 44.8167 172.657 43.95V31.15C172.657 29.3167 172.274 27.8833 171.507 26.85C170.741 25.7833 169.424 25.25 167.557 25.25C165.624 25.25 164.107 25.8167 163.007 26.95C161.907 28.05 161.357 29.45 161.357 31.15V43.95C161.357 44.8167 161.074 45.55 160.507 46.15C159.941 46.7167 159.224 47 158.357 47C157.491 47 156.774 46.7167 156.207 46.15C155.641 45.55 155.357 44.8167 155.357 43.95V23.3C155.357 22.4333 155.641 21.7167 156.207 21.15C156.774 20.55 157.491 20.25 158.357 20.25C159.224 20.25 159.941 20.55 160.507 21.15C161.074 21.7167 161.357 22.4333 161.357 23.3V24.15C162.257 22.95 163.424 21.9167 164.857 21.05C166.324 20.1833 167.924 19.75 169.657 19.75Z" fill="#60B6AD"/>
<path d="M119.575 12.3136C123.176 10.7572 124.857 13.4485 125.248 14.9887V20.3998L117.047 31.4042C113.367 35.5182 105.245 43.5151 102.186 42.591C99.1277 41.6668 98.8564 38.3959 99.103 36.876L103.666 19.9742C107.468 18.0692 115.974 13.8701 119.575 12.3136Z" fill="#F0355F"/>
<path d="M97.6836 25.551C100.002 27.5938 102.349 25.9158 103.233 24.8214L110.448 17.4041C111.878 15.5558 110.674 13.7968 109.893 13.1482C107.327 11.5432 105.124 13.0874 104.343 14.0602C101.729 13.1847 100.006 14.425 99.4718 15.1546C97.3999 15.9814 97.7863 18.7822 98.2385 20.0792C95.2788 22.5111 96.6353 24.7404 97.6836 25.551Z" fill="#F3F0F0"/>
<mask id="mask0" mask-type="alpha" maskUnits="userSpaceOnUse" x="96" y="12" width="16" height="15">
<path d="M97.6836 25.551C100.002 27.5938 102.349 25.9158 103.233 24.8214L110.448 17.4041C111.878 15.5558 110.674 13.7968 109.893 13.1482C107.327 11.5432 105.124 13.0874 104.343 14.0602C101.729 13.1847 100.006 14.425 99.4718 15.1546C97.3999 15.9814 97.7863 18.7822 98.2385 20.0792C95.2788 22.5111 96.6353 24.7404 97.6836 25.551Z" fill="#F3F0F0"/>
</mask>
<g mask="url(#mask0)">
<path d="M112.352 12.336C108.998 12.4333 98.3756 24.1308 93.4838 29.9674L98.6633 36.2904L120.738 14.5247C119.341 13.7546 115.707 12.2387 112.352 12.336Z" fill="#EDECEC"/>
</g>
<path d="M107.481 18.1072L102.425 23.0318C103.707 25.2205 104.377 30.4694 104.398 32.8811H109.639L119.937 23.4574C120.183 21.7753 119.949 18.5449 117.039 19.08C114.142 19.6124 109.499 18.5632 107.51 18.1137L107.481 18.1072Z" fill="#344247"/>
<path d="M134.657 13.8313C139.974 16.7909 136.967 19.408 135.108 21.499L126.322 29.4423C131.116 32.9066 138.276 36.1827 138.322 35.845C138.379 35.4229 142.321 37.5291 144.772 31.8331C147.223 26.1371 149.9 25.1953 151.802 24.46C153.324 23.8718 154.536 23.0961 155.05 22.0581C157.404 14.3245 151.579 11.7491 148.571 12.0753C145.029 7.39443 141.803 9.11195 140.634 10.5558C137.703 7.41465 134.09 7.00787 132.68 9.15692C131.551 10.8762 132.527 12.5735 134.657 13.8313Z" fill="#60B6AD"/>
<mask id="mask1" mask-type="alpha" maskUnits="userSpaceOnUse" x="126" y="7" width="30" height="29">
<path d="M134.663 13.8395C139.977 16.7975 136.969 19.4172 135.111 21.5099L126.324 29.4608C131.113 32.9241 138.269 36.1978 138.315 35.86C138.372 35.4377 142.311 37.5427 144.764 31.8432C147.217 26.1437 149.893 25.2002 151.795 24.4637C153.317 23.8744 154.529 23.0978 155.043 22.0592C157.401 14.3214 151.579 11.7479 148.573 12.0758C145.034 7.39484 141.81 9.11467 140.64 10.5597C137.712 7.41878 134.101 7.01368 132.69 9.16429C131.561 10.8848 132.535 12.5823 134.663 13.8395Z" fill="#60B6AD"/>
</mask>
<g mask="url(#mask1)">
<path d="M140.929 14.2965C139.166 15.1979 135.471 14.059 133.844 13.3768L130.212 13.581L126.486 5.29622L134.717 2.80187L159.257 1.50299L159.333 11.0341L157.621 21.3773C158.494 22.1253 159.027 23.4764 154.184 22.8968C149.34 22.3171 148.065 18.9698 148.034 17.3686C145.388 17.8115 142.195 15.5051 140.929 14.2965Z" fill="#F3F0F0"/>
</g>
<path d="M141.966 17.6876C139.861 18.5427 138.475 20.5263 138.044 21.4112L136.884 22.1806L137.295 23.2774C137.758 23.6854 138.832 24.1402 139.425 22.6955C140.018 21.2509 141.748 19.9093 142.54 19.4192C143.082 19.083 143.193 18.7269 143.167 18.4576C143.118 17.7149 142.346 17.6348 141.966 17.6876Z" fill="#6FC9C0"/>
<path d="M145.665 20.18C143.561 21.0351 142.174 23.0188 141.744 23.9037L140.583 24.6731L140.994 25.7698C141.457 26.1778 142.531 26.6326 143.124 25.1879C143.717 23.7433 145.448 22.4018 146.239 21.9116C146.782 21.5755 146.892 21.2193 146.866 20.95C146.817 20.2073 146.045 20.1272 145.665 20.18Z" fill="#6FC9C0"/>
<ellipse cx="127.028" cy="39.5687" rx="25.158" ry="24.8055" fill="#6FC9C0"/>
<mask id="mask2" mask-type="alpha" maskUnits="userSpaceOnUse" x="101" y="14" width="52" height="51">
<ellipse cx="127.028" cy="39.5687" rx="25.158" ry="24.8055" fill="#6FC9C0"/>
</mask>
<g mask="url(#mask2)">
<path d="M123.945 24.1262C134.994 27.1418 133.728 18.4112 131.714 13.669L124.685 4.79247L100.02 6.98119L89.0441 29.3548C90.4418 33.7728 94.939 42.9978 101.746 44.5543C108.554 46.1107 110.338 40.3389 110.379 37.2585C110.585 35.3535 111.045 31.1058 111.242 29.3548C111.489 27.1661 110.132 20.3567 123.945 24.1262Z" fill="#3FA543"/>
<path d="M141.424 37.6852C143.776 31.0187 153.51 34.6453 157.333 36.9556L164.239 43.6434L151.66 63.2203L132.298 69.7864C131.188 69.1785 128.821 67.4275 128.229 65.2874C127.489 62.6123 128.751 60.2837 130.695 58.8428C132.994 57.1395 134.354 54.8707 135.135 53.4926C137.237 49.784 139.245 47.8587 141.424 47.5344C150.365 47.5344 140.223 41.0889 141.424 37.6852Z" fill="#3FA543"/>
<path d="M118.025 62.7936C115.756 53.5523 106.803 48.9722 102.61 47.8373L94.2237 52.3364L88.5508 60.1185L99.6499 69.9678C106.72 71.4269 120.294 72.0349 118.025 62.7936Z" fill="#F7F5F5"/>
<mask id="mask3" mask-type="alpha" maskUnits="userSpaceOnUse" x="119" y="39" width="15" height="11">
<path d="M126.658 39.9504C122.317 39.6585 119.998 43.2334 119.998 45.5438C119.998 46.5773 121.108 47.7325 122.588 48.4621C124.068 49.1916 127.706 49.1916 130.358 48.4621C132.482 47.8774 133.235 46.3544 133.317 45.5438C133.317 43.1118 132.084 40.3151 126.658 39.9504Z" fill="#F0355F"/>
</mask>
<g mask="url(#mask3)">
<path d="M126.658 39.9504C122.317 39.6585 119.998 43.2334 119.998 45.5438C119.998 46.5773 121.108 47.7325 122.588 48.4621C124.068 49.1916 127.706 49.1916 130.358 48.4621C132.482 47.8774 133.235 46.3544 133.317 45.5438C133.317 43.1118 132.084 40.3151 126.658 39.9504Z" fill="#E80B3C"/>
<path d="M126.658 43.355C122.317 43.0632 119.998 46.6381 119.998 48.9484C119.998 49.982 121.108 51.1371 122.588 51.8667C124.068 52.5963 127.706 52.5962 130.358 51.8667C132.482 51.282 133.235 49.759 133.317 48.9484C133.317 46.5165 132.084 43.7198 126.658 43.355Z" fill="#FB3E5E"/>
</g>
</g>
<mask id="mask4" mask-type="alpha" maskUnits="userSpaceOnUse" x="101" y="14" width="52" height="51">
<ellipse cx="127.028" cy="39.5687" rx="25.158" ry="24.8055" fill="#6FC9C0"/>
</mask>
<g mask="url(#mask4)">
<ellipse cx="137.634" cy="38.4752" rx="25.158" ry="24.8055" fill="white" fill-opacity="0.3"/>
</g>
<ellipse cx="135.414" cy="34.097" rx="3.45306" ry="3.40468" fill="#F3F0F0"/>
<mask id="mask5" mask-type="alpha" maskUnits="userSpaceOnUse" x="131" y="30" width="8" height="8">
<ellipse cx="135.414" cy="34.097" rx="3.45306" ry="3.40468" fill="#F3F0F0"/>
</mask>
<g mask="url(#mask5)">
<ellipse cx="133.317" cy="31.9084" rx="3.45305" ry="3.40468" fill="#344247"/>
</g>
<ellipse cx="118.642" cy="34.097" rx="3.45305" ry="3.40468" fill="#F3F0F0"/>
<mask id="mask6" mask-type="alpha" maskUnits="userSpaceOnUse" x="115" y="30" width="8" height="8">
<ellipse cx="118.642" cy="34.097" rx="3.45305" ry="3.40468" fill="#F3F0F0"/>
</mask>
<g mask="url(#mask6)">
<ellipse cx="116.545" cy="31.9084" rx="3.45306" ry="3.40468" fill="#344247"/>
</g>
<path fill-rule="evenodd" clip-rule="evenodd" d="M148.363 67.0401V56.3397L147.547 55.6977L146.324 54.7322C144.573 53.3507 142.422 52.5544 140.181 52.4584C137.94 52.3625 135.727 52.9718 133.861 54.1984L133.564 54.3941H126.658C125.873 54.3941 125.12 54.7016 124.565 55.2489C124.01 55.7962 123.698 56.5385 123.698 57.3124C123.698 58.0864 124.01 58.8287 124.565 59.376C125.12 59.9233 125.873 60.2307 126.658 60.2307H124.685L115.245 55.8278C114.851 55.6479 114.422 55.5525 113.988 55.5478C113.553 55.5431 113.123 55.6292 112.725 55.8005C112.326 55.9718 111.969 56.2244 111.677 56.5416C111.385 56.8588 111.165 57.2334 111.03 57.6408C110.791 58.355 110.825 59.1311 111.126 59.8223C111.427 60.5135 111.975 61.0719 112.665 61.392L123.645 66.4844C124.223 66.7529 124.84 66.9266 125.472 67C132.748 65.5895 141.63 62.3708 147.547 55.6977L148.363 56.3397L148.363 67.0401Z" fill="#FEC9A3"/>
<path d="M132.672 61.6899H126.658C126.396 61.6899 126.145 61.5875 125.96 61.405C125.775 61.2226 125.671 60.9752 125.671 60.7172C125.671 60.4592 125.775 60.2118 125.96 60.0293C126.145 59.8469 126.396 59.7444 126.658 59.7444H132.672C132.933 59.7444 133.184 59.8469 133.369 60.0293C133.554 60.2118 133.658 60.4592 133.658 60.7172C133.658 60.9752 133.554 61.2226 133.369 61.405C133.184 61.5875 132.933 61.6899 132.672 61.6899Z" fill="#F7A468"/>
</svg>
